{"results":[{"id":"62a0a5e7566c6082b54f988a","name":"Bumblebee Loader on The Rise","description":"In March 2022, a new type of malware named Bumblebee was discovered and distributed via spam campaigns, according to research by Proofpoint and Cyble Research Labs, which analysed the malware in detail.","author_name":"AlienVault","modified":"2022-06-08T15:44:17.195000","created":"2022-06-08T13:36:38.520000","revision":1,"tlp":"white","public":1,"adversary":"","indicators":[{"id":3451611818,"indicator":"23.106.215.123","type":"IPv4","created":"2022-06-08T13:36:40","content":"","title":"","description":"CC=US ASN=AS396190 LEASEWEB-USA-SEA","expiration":"2022-07-08T00:00:00","is_active":1,"role":null},{"id":3460442075,"indicator":"16da4284ab7ab9d5669c34c339132ed6","type":"FileHash-MD5","created":"2022-06-08T13:36:40","content":"","title":"Win64:TrojanX-gen\\ [Trj]","description":"MD5 of 34dc625fc243d06cbc33d403ac7ee05edfd32819","expiration":null,"is_active":1,"role":null},{"id":3460442076,"indicator":"34dc625fc243d06cbc33d403ac7ee05edfd32819","type":"FileHash-SHA1","created":"2022-06-08T13:36:40","content":"","title":"Win64:TrojanX-gen\\ [Trj]","description":"","expiration":null,"is_active":1,"role":null},{"id":3460442077,"indicator":"1249075a0c4af8ecfeb4a3ab1e9ef692cb8876591d73f3470106402ab1592717","type":"FileHash-SHA256","created":"2022-06-08T13:36:40","content":"","title":"Win64:TrojanX-gen\\ [Trj]","description":"SHA256 of 34dc625fc243d06cbc33d403ac7ee05edfd32819","expiration":null,"is_active":1,"role":null},{"id":3460442168,"indicator":"23.254.229.131","type":"IPv4","created":"2022-06-08T13:36:40","content":"","title":"","description":"CC=US ASN=AS54290 HOSTWINDS","expiration":"2022-07-08T00:00:00","is_active":1,"role":null},{"id":3460442169,"indicator":"79.110.52.71","type":"IPv4","created":"2022-06-08T13:36:40","content":"","title":"","description":"CC=NL ASN=AS9009 M247 Ltd","expiration":"2022-07-08T00:00:00","is_active":1,"role":null},{"id":3460442170,"indicator":"51.75.62.99","type":"IPv4","created":"2022-06-08T13:36:40","content":"","title":"","description":"CC=FR ASN=AS16276 OVH SAS","expiration":"2022-07-08T00:00:00","is_active":1,"role":null},{"id":3460956056,"indicator":"315b3d80643da454b40cc938a0e8794f90ccbd05868e55b4848cacbf047850ae","type":"FileHash-SHA256","created":"2022-06-08T13:36:40","content":"","title":"","description":"SHA256 of 8157b198c00de0a19b1d02ae7b76c78857baccd2","expiration":null,"is_active":1,"role":null},{"id":3461227577,"indicator":"7092d2c4b041db8009962e865d6c5cd7","type":"FileHash-MD5","created":"2022-06-08T13:36:40","content":"","title":"","description":"","expiration":null,"is_active":1,"role":null},{"id":3461227578,"indicator":"11838141f869e74225be8bd0d4c866cb46ef0248","type":"FileHash-SHA1","created":"2022-06-08T13:36:40","content":"","title":"","description":"","expiration":null,"is_active":1,"role":null},{"id":3461227579,"indicator":"0e859acbd03e59eae287b124803ec052cf027b519e608c7ccfd920044b9ee1c7","type":"FileHash-SHA256","created":"2022-06-08T13:36:40","content":"","title":"","description":"","expiration":null,"is_active":1,"role":null},{"id":3469085373,"indicator":"310803b7d4db43f2bd0040e21a4ef9fc","type":"FileHash-MD5","created":"2022-06-08T13:36:40","content":"","title":"","description":"","expiration":null,"is_active":1,"role":null},{"id":3469085374,"indicator":"33e03ca5dd9a8f85fdcf091a97312e45","type":"FileHash-MD5","created":"2022-06-08T13:36:40","content":"","title":"","description":"","expiration":null,"is_active":1,"role":null},{"id":3469085375,"indicator":"c9cf08565a10f4c46308037bd31a7f46","type":"FileHash-MD5","created":"2022-06-08T13:36:40","content":"","title":"","description":"","expiration":null,"is_active":1,"role":null},{"id":3469085376,"indicator":"fd21be3db76b714cb4dfae779d1ada1f","type":"FileHash-MD5","created":"2022-06-08T13:36:40","content":"","title":"","description":"MD5 of 8157b198c00de0a19b1d02ae7b76c78857baccd2","expiration":null,"is_active":1,"role":null},{"id":3469085377,"indicator":"17752edb2473b4a246d6a6980375bd87133e7514","type":"FileHash-SHA1","created":"2022-06-08T13:36:40","content":"","title":"","description":"","expiration":null,"is_active":1,"role":null},{"id":3469085378,"indicator":"186981f889ad88a0d5f21c18adb8b35c78851c74","type":"FileHash-SHA1","created":"2022-06-08T13:36:40","content":"","title":"","description":"","expiration":null,"is_active":1,"role":null},{"id":3469085379,"indicator":"8157b198c00de0a19b1d02ae7b76c78857baccd2","type":"FileHash-SHA1","created":"2022-06-08T13:36:40","content":"","title":"","description":"","expiration":null,"is_active":1,"role":null},{"id":3469085380,"indicator":"f42c381524b5f52f0e1a5a8c60d62464b8644968","type":"FileHash-SHA1","created":"2022-06-08T13:36:40","content":"","title":"","description":"","expiration":null,"is_active":1,"role":null},{"id":3469085381,"indicator":"3e698d8d6e7820cc337d5e2eb3d8fbae752a4c05d11bcf00d3cb7d6dc45e1884","type":"FileHash-SHA256","created":"2022-06-08T13:36:40","content":"","title":"","description":"","expiration":null,"is_active":1,"role":null},{"id":3469085382,"indicator":"64c299dc88a35d4ef551516be4f7ed95ae568a6ee0b66a1fcfc3f68bf80d87fe","type":"FileHash-SHA256","created":"2022-06-08T13:36:40","content":"","title":"","description":"","expiration":null,"is_active":1,"role":null},{"id":3469085383,"indicator":"b091415c1939d1da9a7d07901dd3d317a47b2a8ccc9c666d8cf53a512a80b8d6","type":"FileHash-SHA256","created":"2022-06-08T13:36:40","content":"","title":"","description":"","expiration":null,"is_active":1,"role":null}],"tags":["bumblebee","cobalt strike"],"targeted_countries":[],"malware_families":["Bumblebee"],"attack_ids":["T1546","T1055","T1047","T1057","T1218","T1012","T1021","T1053","T1059","T1082","T1190","T1496","T1497","T1552","T1566"],"references":["https:\/\/blog.cyble.com\/2022\/06\/07\/bumblebee-loader-on-the-rise\/"],"industries":[],"extract_source":[],"more_indicators":false},{"id":"62a084ef849cd814d827fb91","name":"FakeCrack: Crypto stealing campaign spread via fake cracked software","description":"Avast analyses the FakeCrack campaign, which delivers crypto-stealer malware masquerading as cracked software.","author_name":"AlienVault","modified":"2022-06-08T15:14:27.690000","created":"2022-06-08T11:15:58.710000","revision":1,"tlp":"white","public":1,"adversary":"","indicators":[{"id":3366955976,"indicator":"freefiles33.xyz","type":"domain","created":"2022-06-08T11:16:00","content":"","title":"","description":"","expiration":null,"is_active":1,"role":null},{"id":3366955977,"indicator":"freefiles34.xyz","type":"domain","created":"2022-06-08T11:16:00","content":"","title":"","description":"","expiration":null,"is_active":1,"role":null},{"id":3427178806,"indicator":"185.250.148.76","type":"IPv4","created":"2022-06-08T11:16:00","content":"","title":"RedLine","description":"CC=MD ASN=AS43624 Pq Hosting S.r.l.","expiration":"2022-07-08T00:00:00","is_active":1,"role":"command_and_control"},{"id":3458370910,"indicator":"14redirect.cfd","type":"domain","created":"2022-06-08T11:16:00","content":"","title":"","description":"","expiration":null,"is_active":1,"role":null},{"id":3458382597,"indicator":"asud28cv.cfd","type":"domain","created":"2022-06-08T11:16:00","content":"","title":"","description":"","expiration":null,"is_active":1,"role":null},{"id":3458388294,"indicator":"bny734uy.cfd","type":"domain","created":"2022-06-08T11:16:00","content":"","title":"","description":"","expiration":null,"is_active":1,"role":null},{"id":3458411670,"indicator":"fr56cvfi.cfd","type":"domain","created":"2022-06-08T11:16:00","content":"","title":"","description":"","expiration":null,"is_active":1,"role":null},{"id":3458485997,"indicator":"wae23iku.cfd","type":"domain","created":"2022-06-08T11:16:00","content":"","title":"","description":"","expiration":null,"is_active":1,"role":null},{"id":3469762457,"indicator":"5423be642e040cfa202fc326027d878003128bff5dfdf4da6c23db00b5942055","type":"FileHash-SHA256","created":"2022-06-08T11:16:00","content":"","title":"","description":"","expiration":null,"is_active":1,"role":null},{"id":3469762458,"indicator":"97f1ae6502d0671f5ec9e28e41cba9e9beeffcc381aae299f45ec3fcc77cdd56","type":"FileHash-SHA256","created":"2022-06-08T11:16:00","content":"","title":"","description":"","expiration":null,"is_active":1,"role":null},{"id":3469762459,"indicator":"ac47ed991025f58745a3ca217b2091e0a54cf2a99ddb0c98988ec7e5de8eac6a","type":"FileHash-SHA256","created":"2022-06-08T11:16:00","content":"","title":"","description":"","expiration":null,"is_active":1,"role":null},{"id":3469762460,"indicator":"bcb1c06505c8df8cf508e834be72a8b6adf67668fcf7076cd058b37cf7fc8aaf","type":"FileHash-SHA256","created":"2022-06-08T11:16:00","content":"","title":"","description":"","expiration":null,"is_active":1,"role":null},{"id":3469762461,"indicator":"c283a387af09f56ba55d92a796edcfa60678e853b384f755313bc6f5086be4ee","type":"FileHash-SHA256","created":"2022-06-08T11:16:00","content":"","title":"","description":"","expiration":null,"is_active":1,"role":null},{"id":3469762462,"indicator":"e5286671048b1ef44a4665c091ad6a9d1f77d6982cf4550b3d2d3a9ef1e24bc7","type":"FileHash-SHA256","created":"2022-06-08T11:16:00","content":"","title":"","description":"","expiration":null,"is_active":1,"role":null},{"id":3469762463,"indicator":"194.180.174.180","type":"IPv4","created":"2022-06-08T11:16:00","content":"","title":"","description":"CC=MD ASN=AS39798 MivoCloud SRL","expiration":"2022-07-08T00:00:00","is_active":1,"role":null},{"id":3469762464,"indicator":"37.221.67.219","type":"IPv4","created":"2022-06-08T11:16:00","content":"","title":"","description":"CC=RU ASN=AS200019 Alexhost Srl","expiration":"2022-07-08T00:00:00","is_active":1,"role":null},{"id":3469762465,"indicator":"45.135.134.211","type":"IPv4","created":"2022-06-08T11:16:00","content":"","title":"","description":"CC=RU ASN=AS51659 LLC Baxet","expiration":"2022-07-08T00:00:00","is_active":1,"role":null},{"id":3469762466,"indicator":"45.140.146.169","type":"IPv4","created":"2022-06-08T11:16:00","content":"","title":"","description":"CC=MD ASN=AS43624 Pq Hosting S.r.l.","expiration":"2022-07-08T00:00:00","is_active":1,"role":null},{"id":3469762467,"indicator":"aeddkiu6745q.cfd","type":"domain","created":"2022-06-08T11:16:00","content":"","title":"","description":"","expiration":null,"is_active":1,"role":null},{"id":3469762468,"indicator":"baed92all.cfd","type":"domain","created":"2022-06-08T11:16:00","content":"","title":"","description":"","expiration":null,"is_active":1,"role":null},{"id":3469762469,"indicator":"dert1mku.cfd","type":"domain","created":"2022-06-08T11:16:00","content":"","title":"","description":"","expiration":null,"is_active":1,"role":null},{"id":3469762470,"indicator":"er67ilky.cfd","type":"domain","created":"2022-06-08T11:16:00","content":"","title":"","description":"","expiration":null,"is_active":1,"role":null},{"id":3469762471,"indicator":"filesend.jp","type":"domain","created":"2022-06-08T11:16:00","content":"","title":"","description":"","expiration":null,"is_active":1,"role":null},{"id":3469762472,"indicator":"freefilesxx.xyz","type":"domain","created":"2022-06-08T11:16:00","content":"","title":"","description":"","expiration":null,"is_active":1,"role":null},{"id":3469762473,"indicator":"goes12by.cfd","type":"domain","created":"2022-06-08T11:16:00","content":"","title":"","description":"","expiration":null,"is_active":1,"role":null},{"id":3469762474,"indicator":"kohuy31ng.cfd","type":"domain","created":"2022-06-08T11:16:00","content":"","title":"","description":"","expiration":null,"is_active":1,"role":null},{"id":3469762475,"indicator":"lixn62ft.cfd","type":"domain","created":"2022-06-08T11:16:00","content":"","title":"","description":"","expiration":null,"is_active":1,"role":null},{"id":3469762476,"indicator":"mihatrt34er.cfd","type":"domain","created":"2022-06-08T11:16:00","content":"","title":"","description":"","expiration":null,"is_active":1,"role":null},{"id":3469762477,"indicator":"oliy67sd.cfd","type":"domain","created":"2022-06-08T11:16:00","content":"","title":"","description":"","expiration":null,"is_active":1,"role":null},{"id":3469762478,"indicator":"uzas871iu.cfd","type":"domain","created":"2022-06-08T11:16:00","content":"","title":"","description":"","expiration":null,"is_active":1,"role":null},{"id":3469762479,"indicator":"wrtgh56mh.cfd","type":"domain","created":"2022-06-08T11:16:00","content":"","title":"","description":"","expiration":null,"is_active":1,"role":null},{"id":3469762480,"indicator":"xzctn14il.cfd","type":"domain","created":"2022-06-08T11:16:00","content":"","title":"","description":"","expiration":null,"is_active":1,"role":null},{"id":3469762481,"indicator":"yhf78aq.cfd","type":"domain","created":"2022-06-08T11:16:00","content":"","title":"","description":"","expiration":null,"is_active":1,"role":null}],"tags":["fakecrack"],"targeted_countries":[],"malware_families":["FakeCrack"],"attack_ids":["T1115","T1090","T1547","T1140","T1036"],"references":["https:\/\/blog.avast.com\/fakecrack-campaign"],"industries":[],"extract_source":[],"more_indicators":false},{"id":"62a0a9839c753178914af2a3","name":"Test Pulse","description":"","author_name":"aminmashari","modified":"2022-06-08T13:52:03.870000","created":"2022-06-08T13:52:03.870000","revision":1,"tlp":"green","public":1,"adversary":"","indicators":[{"id":122930,"indicator":"69.73.130.198","type":"IPv4","created":"2022-06-08T13:52:04","content":"","title":"","description":"","expiration":"2022-07-08T13:00:00","is_active":1,"role":null},{"id":1719592,"indicator":"aoldaily.com","type":"domain","created":"2022-06-08T13:52:04","content":"","title":"","description":"","expiration":null,"is_active":1,"role":null}],"tags":[],"targeted_countries":[],"malware_families":[],"attack_ids":[],"references":[],"industries":[],"extract_source":[],"more_indicators":false},{"id":"62a0a958815f791491aa49fd","name":"Test Pulse","description":"","author_name":"aminmashari","modified":"2022-06-08T13:51:20.975000","created":"2022-06-08T13:51:20.975000","revision":1,"tlp":"green","public":1,"adversary":"","indicators":[{"id":122930,"indicator":"69.73.130.198","type":"IPv4","created":"2022-06-08T13:51:21","content":"","title":"","description":"","expiration":"2022-07-08T13:00:00","is_active":1,"role":null},{"id":1719592,"indicator":"aoldaily.com","type":"domain","created":"2022-06-08T13:51:21","content":"","title":"","description":"","expiration":null,"is_active":1,"role":null}],"tags":[],"targeted_countries":[],"malware_families":[],"attack_ids":[],"references":[],"industries":[],"extract_source":[],"more_indicators":false},{"id":"62a0a72cf080e7ba914b69ba","name":"Attackers Exploit MSDT Follina Bug to Drop RAT, Infostealer","description":"A bug in Microsoft\u2019s support tool has been exploited by attackers to drop malware on vulnerable systems, according to a report from Symantec and its senior security analyst Yuvaraj Megavarnadu.","author_name":"AlienVault","modified":"2022-06-08T13:42:03.947000","created":"2022-06-08T13:42:03.947000","revision":1,"tlp":"white","public":1,"adversary":"","indicators":[{"id":3463951560,"indicator":"CVE-2022-30190","type":"CVE","created":"2022-06-08T13:42:05","content":"","title":"","description":"","expiration":null,"is_active":1,"role":null},{"id":3466203775,"indicator":"b63fbf80351b3480c62a6a5158334ec8e91fecd057f6c19e4b4dd3febaa9d447","type":"FileHash-SHA256","created":"2022-06-08T13:42:05","content":"","title":"","description":"","expiration":null,"is_active":1,"role":null},{"id":3469786928,"indicator":"8e0be5e1035777f2ea373593c214d29ad146dd0453e9b8a1cad16d787c0be632","type":"FileHash-SHA256","created":"2022-06-08T13:42:05","content":"","title":"","description":"","expiration":null,"is_active":1,"role":null},{"id":3469786929,"indicator":"e7faa6c18d4906257652253755cf8f9a739c10938db369878907f8ed7dd8524d","type":"FileHash-SHA256","created":"2022-06-08T13:42:05","content":"","title":"","description":"","expiration":null,"is_active":1,"role":null}],"tags":["asyncrat","follina","infostealer"],"targeted_countries":[],"malware_families":["AsyncRAT"],"attack_ids":["T1555","T1553","T1059","T1547","T1503","T1592","T1041","T1203"],"references":["https:\/\/symantec-enterprise-blogs.security.com\/blogs\/threat-intelligence\/follina-msdt-exploit-malware"],"industries":[],"extract_source":[],"more_indicators":false}],"count":4018,"prefetch_pulse_ids":false,"t":0,"t2":0.02996516227722168,"t3":1.3367881774902344,"previous":null,"next":"https:\/\/otx.alienvault.com\/api\/v1\/pulses\/subscribed?page=2"}